…
``` r
tumor_gland_ssets <- ssets
tumor_gland_betas <- betas
tumor_gland_segs <- segs
```

## Comparision

``` r
A <- tumor_gland %>% filter(grepl("A", sample_id)) %>% select(plate, sentrix_id, sentrix_position)
B <- tumor_gland %>% filter(grepl("B", sample_id)) %>% select(plate, sentrix_id, sentrix_position) 
A
```

    ## # A tibble: 24 x 3
    ##    plate   sentrix_id sentrix_position
    ##    <dbl>        <dbl> <chr>           
    ##  1  1483 201980430148 R01C01          
    ##  2  1483 201980430148 R02C01          
    ##  3  1483 201980430148 R05C01          
    ##  4  1483 201980430148 R06C01          
    ##  5  1464 201959740106 R01C01          
    ##  6  1464 201959740106 R02C01          
    ##  7  1464 201959740106 R05C01          
    ##  8  1464 201959740106 R06C01          
    ##  9  1451 201530950071 R02C01          
    ## 10  1451 201530950071 R03C01          
    ## # … with 14 more rows
…
